{
    "user_name": "user_4142@example.com",
    "user_password": "teste",
    "gitlab_access_token": "eyJhbGciOiJIUzI1NiIsInR5cCI6IkpXVCJ9.eyJlbWFpbCI6InVzZXJfNjkxODlAZXhhbXBsZS5jb20iLCJwYXNzd29yZCI6InRlc3RlIiwiaWF0IjoxNjgxMDY4MDQ4LCJleHAiOjE2ODEwNjg2NDh9.8z122as0PBDF14UFrJ1LoVCVJQ_LGd4d_JFNAtPVL4M"
}